<?xml version="1.0" encoding="utf-8"?>
<!-- Generator: Adobe Illustrator 16.0.0, SVG Export Plug-In . SVG Version: 6.00 Build 0)  -->
<!DOCTYPE svg PUBLIC "-//W3C//DTD SVG 1.1//EN" "http://www.w3.org/Graphics/SVG/1.1/DTD/svg11.dtd">
<svg version="1.1" id="Calque_1" xmlns="http://www.w3.org/2000/svg" xmlns:xlink="http://www.w3.org/1999/xlink" x="0px" y="0px"
	 width="56.689px" height="85.04px" viewBox="0 0 56.689 85.04" enable-background="new 0 0 56.689 85.04" xml:space="preserve">
<polyline fill="none" stroke="#000000" stroke-miterlimit="10" points="1.417,42.52 55.275,42.52 55.275,82.915 1.417,82.915 
	1.417,2.126 41.813,2.126 41.813,42.52 "/>
</svg>
